{
	"metadata": {
		"version": 1
	},
	"application": {
		"name": "devskiller-sample-calculator-maven",
		"language": "JAVA_MAVEN",
		"artifact_store": {
			"type": "s3",
			"repositories": [
				{
					"category": "rc-packaging",
					"bucket": "guide-rails-calculi-rc"
				},
				{
					"category": "final-packaging",
					"bucket": "guide-rails-calculi-final"
				},
				{
					"category": "logs",
					"bucket": "guide-rails-calculi-logs"
				}
			]
		}
	},
	"pipeline": {
		"segments": [
			{
				"name": "Build",
				"segment_type": "build",
				"job_steps": [
					{
						"name": "compile",
						"definition": "Run the maven compile command",
						"command": "mvn compile",
						"properties": null
					},
					{
						"name": "package",
						"definition": "Run the maven package command",
						"command": "mvn package",
						"properties": null
					},
					{
						"name": "copy-jar",
						"definition": "Copy final JAR to expected location",
						"command": "cp -f target/*.[jwe]ar **/target/*.[jwe]ar .",
						"properties": null
					}
				],
				"exit_actions": {
					"default": {
						"fetch_logs": true,
						"notifications": [
							{
								"type": "slack",
								"send_notification": true,
								"to": [],
								"message": ""
							}
						],
						"code_analysis": {
							"publish": true,
							"properties": []
						},
						"delete_instances": true
					},
					"on_success": {
						"fetch_logs": true,
						"notifications": [
							{
								"type": "slack",
								"send_notification": false,
								"to": [],
								"message": ""
							}
						],
						"code_analysis": {
							"publish": true,
							"properties": []
						},
						"delete_instances": true
					},
					"on_failure": {
						"fetch_logs": true,
						"notifications": [
							{
								"type": "slack",
								"send_notification": false,
								"to": [],
								"message": ""
							}
						],
						"code_analysis": {
							"publish": true,
							"properties": []
						},
						"delete_instances": true
					},
					"on_abort": {
						"fetch_logs": true,
						"notifications": [
							{
								"type": "slack",
								"send_notification": false,
								"to": [],
								"message": ""
							}
						],
						"code_analysis": {
							"publish": true,
							"properties": []
						},
						"delete_instances": true
					}
				},
				"properties": [
					{
						"name": "gradle.user.home",
						"description": "GRADLE_USER_HOME is set to ${SEGMENT_BASE_DIR}/cache/.gradle by default, when caching is enabled. Caches are maintained on the worker where your build gets allocated. For a new worker assigned to the build, the cache will be re-created",
						"value": "${SEGMENT_BASE_DIR}/cache/.gradle"
					},
					{
						"name": "ivy.defaultCacheDir",
						"description": "ivy cache directory is set to ${SEGMENT_BASE_DIR}/cache/.ivy by default, when caching is enabled. Caches are maintained on the worker where your build gets allocated. For a new worker assigned to the build, the cache will be re-created",
						"value": "${SEGMENT_BASE_DIR}/cache/.ivy"
					},
					{
						"name": "maven.repo.local",
						"description": "maven local repository is set to ${SEGMENT_BASE_DIR}/cache/.m2 by default, when caching is enabled. Caches are maintained on the worker where your build gets allocated. For a new worker assigned to the build, the cache will be re-created",
						"value": "${SEGMENT_BASE_DIR}/cache/.m2"
					}
				],
				"deployment_strategy": {},
				"application_init": {
					"command": "",
					"arguments": null
				},
				"packages": [
					{
						"name": "((application.name))",
						"dependencies": [],
						"downloads": [],
						"files": [
							"((application.name))*"
						],
						"package_install_command": "",
						"installed_path": ""
					}
				],
				"instance_tags": [
					{
						"name": "application.name",
						"value": "((application.name))"
					}
				],
				"post_deployment_actions": {
					"instances": null,
					"loadbalanced": false,
					"loadbalancer": {
						"TargetGroupName": "",
						"TargetGroupPort": 0,
						"TargetGroupProtocol": "",
						"TargetType": "",
						"VPCID": "",
						"HealthCheckEnabled": false,
						"HealthCheckPort": "",
						"UnhealthyThresholdCount": 0
					}
				},
				"cache_info": {
					"paths": [
						"((gradle.user.home))",
						"((ivy.defaultCacheDir))",
						"((maven.repo.local))"
					]
				}
			},
			{
				"name": "Integration",
				"segment_type": "integration",
				"run_after": [
					"Build"
				],
				"exit_actions": {
					"default": {
						"fetch_logs": true,
						"notifications": [
							{
								"type": "slack",
								"send_notification": true,
								"to": [],
								"message": ""
							}
						],
						"code_analysis": {
							"publish": true,
							"properties": []
						},
						"delete_instances": true
					},
					"on_success": {
						"fetch_logs": true,
						"notifications": [
							{
								"type": "slack",
								"send_notification": false,
								"to": [],
								"message": ""
							}
						],
						"code_analysis": {
							"publish": true,
							"properties": []
						},
						"delete_instances": true
					},
					"on_failure": {
						"fetch_logs": true,
						"notifications": [
							{
								"type": "slack",
								"send_notification": false,
								"to": [],
								"message": ""
							}
						],
						"code_analysis": {
							"publish": true,
							"properties": []
						},
						"delete_instances": true
					},
					"on_abort": {
						"fetch_logs": true,
						"notifications": [
							{
								"type": "slack",
								"send_notification": false,
								"to": [],
								"message": ""
							}
						],
						"code_analysis": {
							"publish": true,
							"properties": []
						},
						"delete_instances": true
					}
				},
				"deployment_strategy": {
					"canaries": 1,
					"max_in_flight": 1,
					"canary_watch_time": "5000-30000",
					"update_watch_time": "5000-30000",
					"serial": false
				},
				"application_init": {
					"command": "",
					"arguments": null
				},
				"process": {
					"init": {
						"command": ""
					}
				},
				"package_dependencies": [
					"((application.name))"
				],
				"instance_tags": [
					{
						"name": "application.name",
						"value": "((application.name))"
					}
				],
				"instance_groups": [
					{
						"name": "((application.name))",
						"number_of_instances": 1,
						"persistent_disk_type": "",
						"vm_type": "default",
						"os_type": "default",
						"networks": [
							"((deploy.target.network.integration))"
						],
						"availability_zones": [
							"((deploy.target.zone.integration))"
						],
						"deployment_strategy": {},
						"dependencies": [
							{
								"name": "consul",
								"release": "consul",
								"provides": [
									{
										"name": "consul_servers.as",
										"value": "consul_1"
									}
								],
								"consumes": [
									{
										"name": "consul_servers.from",
										"value": "consul_1"
									}
								],
								"properties": [
									{
										"name": "consul.servicename",
										"value": "((consul.servicename))"
									},
									{
										"name": "consul.environment",
										"value": "((consul.environment))"
									},
									{
										"name": "consul.datacenter",
										"value": "((consul.datacenter))"
									},
									{
										"name": "consul.server",
										"value": "false"
									},
									{
										"name": "consul.joinservers",
										"value": "((consul.joinservers))"
									},
									{
										"name": "calculi.intermediate.cert",
										"value": "grsecret:tls.cert"
									},
									{
										"name": "calculi.intermediate.key",
										"value": "grsecret:tls.key"
									}
								]
							}
						]
					}
				],
				"post_deployment_actions": {
					"instances": null,
					"loadbalanced": false,
					"loadbalancer": {
						"TargetGroupName": "",
						"TargetGroupPort": 0,
						"TargetGroupProtocol": "",
						"TargetType": "",
						"VPCID": "",
						"HealthCheckEnabled": false,
						"HealthCheckPort": "",
						"UnhealthyThresholdCount": 0
					}
				}
			},
			{
				"name": "Production",
				"segment_type": "production",
				"persistent": true,
				"run_after": [
					"Integration"
				],
				"exit_actions": {
					"default": {
						"fetch_logs": true,
						"notifications": [
							{
								"type": "slack",
								"send_notification": true,
								"to": [],
								"message": ""
							}
						],
						"code_analysis": {
							"publish": true,
							"properties": []
						},
						"delete_instances": false
					},
					"on_success": {
						"fetch_logs": true,
						"notifications": [
							{
								"type": "slack",
								"send_notification": false,
								"to": [],
								"message": ""
							}
						],
						"code_analysis": {
							"publish": true,
							"properties": []
						},
						"delete_instances": false
					},
					"on_failure": {
						"fetch_logs": true,
						"notifications": [
							{
								"type": "slack",
								"send_notification": false,
								"to": [],
								"message": ""
							}
						],
						"code_analysis": {
							"publish": true,
							"properties": []
						},
						"delete_instances": false
					},
					"on_abort": {
						"fetch_logs": true,
						"notifications": [
							{
								"type": "slack",
								"send_notification": false,
								"to": [],
								"message": ""
							}
						],
						"code_analysis": {
							"publish": true,
							"properties": []
						},
						"delete_instances": false
					}
				},
				"deployment_strategy": {
					"canaries": 1,
					"max_in_flight": 1,
					"canary_watch_time": "5000-30000",
					"update_watch_time": "5000-30000",
					"serial": false
				},
				"application_init": {
					"command": "",
					"arguments": null
				},
				"process": {
					"init": {
						"command": ""
					}
				},
				"package_dependencies": [
					"((application.name))"
				],
				"instance_tags": [
					{
						"name": "application.name",
						"value": "((application.name))"
					}
				],
				"instance_groups": [
					{
						"name": "((application.name))",
						"number_of_instances": 1,
						"persistent_disk_type": "",
						"vm_type": "default",
						"os_type": "default",
						"networks": [
							"((deploy.target.network.production))"
						],
						"availability_zones": [
							"((deploy.target.zone.production))"
						],
						"deployment_strategy": {},
						"dependencies": [
							{
								"name": "consul",
								"release": "consul",
								"provides": [
									{
										"name": "consul_servers.as",
										"value": "consul_1"
									}
								],
								"consumes": [
									{
										"name": "consul_servers.from",
										"value": "consul_1"
									}
								],
								"properties": [
									{
										"name": "consul.servicename",
										"value": "((consul.servicename))"
									},
									{
										"name": "consul.environment",
										"value": "((consul.environment))"
									},
									{
										"name": "consul.datacenter",
										"value": "((consul.datacenter))"
									},
									{
										"name": "consul.server",
										"value": "false"
									},
									{
										"name": "consul.joinservers",
										"value": "((consul.joinservers))"
									},
									{
										"name": "calculi.intermediate.cert",
										"value": "grsecret:tls.cert"
									},
									{
										"name": "calculi.intermediate.key",
										"value": "grsecret:tls.key"
									}
								]
							}
						]
					}
				],
				"post_deployment_actions": {
					"instances": null,
					"loadbalanced": false,
					"loadbalancer": {
						"TargetGroupName": "",
						"TargetGroupPort": 0,
						"TargetGroupProtocol": "",
						"TargetType": "",
						"VPCID": "",
						"HealthCheckEnabled": false,
						"HealthCheckPort": "",
						"UnhealthyThresholdCount": 0
					}
				}
			}
		],
		"exit_actions": {
			"default": {
				"fetch_logs": true,
				"notifications": [
					{
						"type": "slack",
						"send_notification": true,
						"to": [],
						"message": ""
					}
				],
				"code_analysis": {
					"publish": true,
					"properties": []
				},
				"delete_instances": true
			},
			"on_success": {
				"fetch_logs": true,
				"notifications": [
					{
						"type": "slack",
						"send_notification": false,
						"to": [],
						"message": ""
					}
				],
				"code_analysis": {
					"publish": true,
					"properties": []
				},
				"delete_instances": true
			},
			"on_failure": {
				"fetch_logs": true,
				"notifications": [
					{
						"type": "slack",
						"send_notification": false,
						"to": [],
						"message": ""
					}
				],
				"code_analysis": {
					"publish": true,
					"properties": []
				},
				"delete_instances": true
			},
			"on_abort": {
				"fetch_logs": true,
				"notifications": [
					{
						"type": "slack",
						"send_notification": false,
						"to": [],
						"message": ""
					}
				],
				"code_analysis": {
					"publish": true,
					"properties": []
				},
				"delete_instances": true
			}
		},
		"default_properties": null,
		"deployment_files": [],
		"application_init": {
			"command": "",
			"arguments": null
		},
		"process": {
			"init": {
				"command": "bin/start-service.sh"
			}
		},
		"releases": [
			{
				"name": "consul",
				"version": "latest"
			}
		]
	},
	"organization": {
		"orgname": ""
	}
}